..........
----------------------------------------------------------------------
Ran 10 tests in 0.003s

OK
Name               Stmts   Miss Branch BrPart  Cover   Missing
--------------------------------------------------------------
Diplomacy.py          68      0     42      0   100%
TestDiplomacy.py      59      0      0      0   100%
--------------------------------------------------------------
TOTAL                127      0     42      0   100%
