............
----------------------------------------------------------------------
Ran 12 tests in 0.002s

OK
Name               Stmts   Miss Branch BrPart  Cover   Missing
--------------------------------------------------------------
Diplomacy.py         106      0     53      0   100%
TestDiplomacy.py      56      0      0      0   100%
--------------------------------------------------------------
TOTAL                162      0     53      0   100%
